EESchema Schematic File Version 2
LIBS:power
LIBS:device
LIBS:switches
LIBS:relays
LIBS:motors
LIBS:transistors
LIBS:conn
LIBS:linear
LIBS:regul
LIBS:74xx
LIBS:cmos4000
LIBS:adc-dac
LIBS:memory
LIBS:xilinx
LIBS:microcontrollers
LIBS:dsp
LIBS:microchip
LIBS:analog_switches
LIBS:motorola
LIBS:texas
LIBS:intel
LIBS:audio
LIBS:interface
LIBS:digital-audio
LIBS:philips
LIBS:display
LIBS:cypress
LIBS:siliconi
LIBS:opto
LIBS:atmel
LIBS:contrib
LIBS:valves
LIBS:BiAmp_Mono_Board-cache
EELAYER 25 0
EELAYER END
$Descr A4 11693 8268
encoding utf-8
Sheet 2 2
Title ""
Date ""
Rev ""
Comp ""
Comment1 ""
Comment2 ""
Comment3 ""
Comment4 ""
$EndDescr
$Comp
L Conn_01x03 J5
U 1 1 59DA82D1
P 1150 1750
F 0 "J5" H 1150 1950 50  0000 C CNN
F 1 "PSU_LOW" H 1150 1550 50  0000 C CNN
F 2 "Connectors:bornier3" H 1150 1750 50  0001 C CNN
F 3 "" H 1150 1750 50  0001 C CNN
	1    1150 1750
	-1   0    0    1   
$EndComp
$Comp
L GND #PWR045
U 1 1 59DA8336
P 1550 1950
F 0 "#PWR045" H 1550 1700 50  0001 C CNN
F 1 "GND" H 1550 1800 50  0000 C CNN
F 2 "" H 1550 1950 50  0001 C CNN
F 3 "" H 1550 1950 50  0001 C CNN
	1    1550 1950
	1    0    0    -1  
$EndComp
$Comp
L D_Bridge_+-AA D2
U 1 1 59DA8363
P 2250 1750
F 0 "D2" H 2300 2025 50  0000 L CNN
F 1 "BRIDGE_SMALL" H 2300 1950 50  0000 L CNN
F 2 "Diodes_SMD:Diode_Bridge_DFS" H 2250 1750 50  0001 C CNN
F 3 "" H 2250 1750 50  0001 C CNN
	1    2250 1750
	1    0    0    -1  
$EndComp
$Comp
L CP C24
U 1 1 59DA83CE
P 3150 1600
F 0 "C24" H 3175 1700 50  0000 L CNN
F 1 "FILTER_CAP" H 3175 1500 50  0000 L CNN
F 2 "Capacitors_THT:CP_Radial_D16.0mm_P7.50mm" H 3188 1450 50  0001 C CNN
F 3 "" H 3150 1600 50  0001 C CNN
	1    3150 1600
	1    0    0    -1  
$EndComp
$Comp
L CP C25
U 1 1 59DA8418
P 3150 2100
F 0 "C25" H 3175 2200 50  0000 L CNN
F 1 "FILTER_CAP" H 3175 2000 50  0000 L CNN
F 2 "Capacitors_THT:CP_Radial_D16.0mm_P7.50mm" H 3188 1950 50  0001 C CNN
F 3 "" H 3150 2100 50  0001 C CNN
	1    3150 2100
	1    0    0    -1  
$EndComp
$Comp
L C C28
U 1 1 59DA8632
P 3800 1600
F 0 "C28" H 3825 1700 50  0000 L CNN
F 1 "100n" H 3825 1500 50  0000 L CNN
F 2 "Capacitors_THT:C_Rect_L7.0mm_W2.0mm_P5.00mm" H 3838 1450 50  0001 C CNN
F 3 "" H 3800 1600 50  0001 C CNN
	1    3800 1600
	1    0    0    -1  
$EndComp
$Comp
L C C29
U 1 1 59DA867A
P 3800 2100
F 0 "C29" H 3825 2200 50  0000 L CNN
F 1 "100n" H 3825 2000 50  0000 L CNN
F 2 "Capacitors_THT:C_Rect_L7.0mm_W2.0mm_P5.00mm" H 3838 1950 50  0001 C CNN
F 3 "" H 3800 2100 50  0001 C CNN
	1    3800 2100
	1    0    0    -1  
$EndComp
$Comp
L LM7815_TO220 U9
U 1 1 59DA88DB
P 4550 1450
F 0 "U9" H 4400 1575 50  0000 C CNN
F 1 "LM7815_TO220" H 4550 1575 50  0000 L CNN
F 2 "TO_SOT_Packages_THT:TO-220-3_Vertical" H 4550 1675 50  0001 C CIN
F 3 "" H 4550 1400 50  0001 C CNN
	1    4550 1450
	1    0    0    -1  
$EndComp
$Comp
L LM7915_TO220 U10
U 1 1 59DA8932
P 4550 2300
F 0 "U10" H 4400 2175 50  0000 C CNN
F 1 "LM7915_TO220" H 4550 2175 50  0000 L CNN
F 2 "TO_SOT_Packages_THT:TO-220-3_Vertical" H 4550 2100 50  0001 C CIN
F 3 "" H 4550 2300 50  0001 C CNN
	1    4550 2300
	1    0    0    -1  
$EndComp
$Comp
L CP C32
U 1 1 59DA8F6F
P 5550 1600
F 0 "C32" H 5575 1700 50  0000 L CNN
F 1 "220u" H 5575 1500 50  0000 L CNN
F 2 "Capacitors_THT:CP_Radial_D10.0mm_P5.00mm" H 5588 1450 50  0001 C CNN
F 3 "" H 5550 1600 50  0001 C CNN
	1    5550 1600
	1    0    0    -1  
$EndComp
$Comp
L CP C33
U 1 1 59DA8FF2
P 5550 2100
F 0 "C33" H 5575 2200 50  0000 L CNN
F 1 "220u" H 5575 2000 50  0000 L CNN
F 2 "Capacitors_THT:CP_Radial_D10.0mm_P5.00mm" H 5588 1950 50  0001 C CNN
F 3 "" H 5550 2100 50  0001 C CNN
	1    5550 2100
	1    0    0    -1  
$EndComp
Wire Wire Line
	1550 1950 1550 1750
Wire Wire Line
	1550 1750 1350 1750
Wire Wire Line
	2250 1450 1350 1450
Wire Wire Line
	1350 1450 1350 1650
Wire Wire Line
	2250 2050 2250 2200
Wire Wire Line
	2250 2200 1350 2200
Wire Wire Line
	1350 2200 1350 1850
Wire Wire Line
	2850 1450 4250 1450
Wire Wire Line
	2850 1450 2850 1750
Wire Wire Line
	2850 1750 2550 1750
Wire Wire Line
	3150 1750 3150 1950
Wire Wire Line
	1950 1750 1950 2300
Wire Wire Line
	1950 2300 4250 2300
Wire Wire Line
	3150 2300 3150 2250
Wire Wire Line
	3800 1750 3800 1950
Connection ~ 3150 1450
Wire Wire Line
	3800 2300 3800 2250
Connection ~ 3150 2300
Connection ~ 3800 1450
Connection ~ 3800 2300
Wire Wire Line
	4550 1750 4550 2000
Wire Wire Line
	5150 1750 5150 1950
Wire Wire Line
	4850 1450 6150 1450
Wire Wire Line
	4850 2300 6150 2300
Wire Wire Line
	5150 2300 5150 2250
Wire Wire Line
	5550 1750 5550 1950
Connection ~ 5150 1450
Wire Wire Line
	5550 2300 5550 2250
Connection ~ 5150 2300
$Comp
L GND #PWR046
U 1 1 59DA930C
P 5950 2050
F 0 "#PWR046" H 5950 1800 50  0001 C CNN
F 1 "GND" H 5950 1900 50  0000 C CNN
F 2 "" H 5950 2050 50  0001 C CNN
F 3 "" H 5950 2050 50  0001 C CNN
	1    5950 2050
	1    0    0    -1  
$EndComp
Wire Wire Line
	5950 1850 5950 2050
Wire Wire Line
	3150 1850 5950 1850
Connection ~ 5550 1850
Connection ~ 5150 1850
Connection ~ 4550 1850
Connection ~ 3800 1850
Connection ~ 3150 1850
Connection ~ 5550 1450
Connection ~ 5550 2300
$Comp
L Conn_01x03 J6
U 1 1 59DA9E28
P 1250 4150
F 0 "J6" H 1250 4350 50  0000 C CNN
F 1 "PSU_HIGH" H 1250 3950 50  0000 C CNN
F 2 "Connectors:bornier3" H 1250 4150 50  0001 C CNN
F 3 "" H 1250 4150 50  0001 C CNN
	1    1250 4150
	-1   0    0    1   
$EndComp
$Comp
L D_Bridge_+-AA D1
U 1 1 59DA9EB5
P 2200 4150
F 0 "D1" H 2250 4425 50  0000 L CNN
F 1 "D_Bridge_+-AA" H 2250 4350 50  0000 L CNN
F 2 "Diodes_THT:Diode_Bridge_18.5x5.5" H 2200 4150 50  0001 C CNN
F 3 "" H 2200 4150 50  0001 C CNN
	1    2200 4150
	1    0    0    -1  
$EndComp
Wire Wire Line
	1900 4150 1600 4150
Wire Wire Line
	1600 4150 1600 4050
Wire Wire Line
	1600 4050 1450 4050
Wire Wire Line
	2200 4450 2200 4550
Wire Wire Line
	2200 4550 1450 4550
Wire Wire Line
	1450 4550 1450 4250
$Comp
L GND #PWR047
U 1 1 59DA9FDF
P 1500 4600
F 0 "#PWR047" H 1500 4350 50  0001 C CNN
F 1 "GND" H 1500 4450 50  0000 C CNN
F 2 "" H 1500 4600 50  0001 C CNN
F 3 "" H 1500 4600 50  0001 C CNN
	1    1500 4600
	1    0    0    -1  
$EndComp
Wire Wire Line
	1500 4600 1500 4150
Wire Wire Line
	1500 4150 1450 4150
$Comp
L CP C22
U 1 1 59DAA57B
P 3100 4000
F 0 "C22" H 3125 4100 50  0000 L CNN
F 1 "FILTER_CAP" H 3125 3900 50  0000 L CNN
F 2 "Capacitors_THT:CP_Radial_D35.0mm_P10.00mm_SnapIn" H 3138 3850 50  0001 C CNN
F 3 "" H 3100 4000 50  0001 C CNN
	1    3100 4000
	1    0    0    -1  
$EndComp
$Comp
L CP C23
U 1 1 59DAA600
P 3100 4450
F 0 "C23" H 3125 4550 50  0000 L CNN
F 1 "FILTER_CAP" H 3125 4350 50  0000 L CNN
F 2 "Capacitors_THT:CP_Radial_D35.0mm_P10.00mm_SnapIn" H 3138 4300 50  0001 C CNN
F 3 "" H 3100 4450 50  0001 C CNN
	1    3100 4450
	1    0    0    -1  
$EndComp
$Comp
L C C26
U 1 1 59DAA67A
P 3750 4000
F 0 "C26" H 3775 4100 50  0000 L CNN
F 1 "100n" H 3775 3900 50  0000 L CNN
F 2 "Capacitors_THT:C_Rect_L7.0mm_W2.0mm_P5.00mm" H 3788 3850 50  0001 C CNN
F 3 "" H 3750 4000 50  0001 C CNN
	1    3750 4000
	1    0    0    -1  
$EndComp
$Comp
L C C27
U 1 1 59DAA6FD
P 3750 4450
F 0 "C27" H 3775 4550 50  0000 L CNN
F 1 "100n" H 3775 4350 50  0000 L CNN
F 2 "Capacitors_THT:C_Rect_L7.0mm_W2.0mm_P5.00mm" H 3788 4300 50  0001 C CNN
F 3 "" H 3750 4450 50  0001 C CNN
	1    3750 4450
	1    0    0    -1  
$EndComp
Wire Wire Line
	3100 3850 3100 3700
Wire Wire Line
	2200 3700 4150 3700
Wire Wire Line
	2200 3700 2200 3850
Wire Wire Line
	3750 3700 3750 3850
Connection ~ 3100 3700
Wire Wire Line
	3750 4700 3750 4600
Wire Wire Line
	2500 4700 4150 4700
Wire Wire Line
	2500 4700 2500 4150
Wire Wire Line
	3100 4600 3100 4700
Connection ~ 3100 4700
Wire Wire Line
	3100 4150 3100 4300
Wire Wire Line
	3750 4150 3750 4300
$Comp
L Fuse F1
U 1 1 59DAA9FA
P 4300 3700
F 0 "F1" V 4380 3700 50  0000 C CNN
F 1 "Fuse" V 4225 3700 50  0000 C CNN
F 2 "Fuse_Holders_and_Fuses:Fuseholder5x20_horiz_open_inline_Type-I" V 4230 3700 50  0001 C CNN
F 3 "" H 4300 3700 50  0001 C CNN
	1    4300 3700
	0    1    1    0   
$EndComp
$Comp
L Fuse F2
U 1 1 59DAAA6C
P 4300 4700
F 0 "F2" V 4380 4700 50  0000 C CNN
F 1 "Fuse" V 4225 4700 50  0000 C CNN
F 2 "Fuse_Holders_and_Fuses:Fuseholder5x20_horiz_open_inline_Type-I" V 4230 4700 50  0001 C CNN
F 3 "" H 4300 4700 50  0001 C CNN
	1    4300 4700
	0    1    1    0   
$EndComp
Connection ~ 3750 3700
Connection ~ 3750 4700
$Comp
L GND #PWR048
U 1 1 59DAAC9F
P 4200 4300
F 0 "#PWR048" H 4200 4050 50  0001 C CNN
F 1 "GND" H 4200 4150 50  0000 C CNN
F 2 "" H 4200 4300 50  0001 C CNN
F 3 "" H 4200 4300 50  0001 C CNN
	1    4200 4300
	1    0    0    -1  
$EndComp
Wire Wire Line
	4200 4200 4200 4300
Wire Wire Line
	3100 4200 4200 4200
Connection ~ 3750 4200
Connection ~ 3100 4200
Wire Wire Line
	4650 3700 4450 3700
Wire Wire Line
	4650 4700 4450 4700
$Comp
L +15V #PWR049
U 1 1 59DAC1D1
P 6150 1450
F 0 "#PWR049" H 6150 1300 50  0001 C CNN
F 1 "+15V" H 6150 1590 50  0000 C CNN
F 2 "" H 6150 1450 50  0001 C CNN
F 3 "" H 6150 1450 50  0001 C CNN
	1    6150 1450
	0    1    1    0   
$EndComp
$Comp
L -15V #PWR59
U 1 1 59DAC2A7
P 6150 2300
F 0 "#PWR59" H 6150 2400 50  0001 C CNN
F 1 "-15V" H 6150 2450 50  0000 C CNN
F 2 "" H 6150 2300 50  0001 C CNN
F 3 "" H 6150 2300 50  0001 C CNN
	1    6150 2300
	0    1    1    0   
$EndComp
$Comp
L +36V #PWR050
U 1 1 59DAC3FB
P 4650 3700
F 0 "#PWR050" H 4650 3550 50  0001 C CNN
F 1 "+36V" H 4650 3840 50  0000 C CNN
F 2 "" H 4650 3700 50  0001 C CNN
F 3 "" H 4650 3700 50  0001 C CNN
	1    4650 3700
	0    1    1    0   
$EndComp
$Comp
L -36V #PWR56
U 1 1 59DAC437
P 4650 4700
F 0 "#PWR56" H 4650 4800 50  0001 C CNN
F 1 "-36V" H 4650 4850 50  0000 C CNN
F 2 "" H 4650 4700 50  0001 C CNN
F 3 "" H 4650 4700 50  0001 C CNN
	1    4650 4700
	0    1    1    0   
$EndComp
$EndSCHEMATC
