EESchema Schematic File Version 2
LIBS:power
LIBS:device
LIBS:switches
LIBS:relays
LIBS:motors
LIBS:transistors
LIBS:conn
LIBS:linear
LIBS:regul
LIBS:74xx
LIBS:cmos4000
LIBS:adc-dac
LIBS:memory
LIBS:xilinx
LIBS:microcontrollers
LIBS:dsp
LIBS:microchip
LIBS:analog_switches
LIBS:motorola
LIBS:texas
LIBS:intel
LIBS:audio
LIBS:interface
LIBS:digital-audio
LIBS:philips
LIBS:display
LIBS:cypress
LIBS:siliconi
LIBS:opto
LIBS:atmel
LIBS:contrib
LIBS:valves
LIBS:BiAmp_Mono_Board-cache
EELAYER 26 0
EELAYER END
$Descr A3 16535 11693
encoding utf-8
Sheet 1 1
Title ""
Date ""
Rev ""
Comp ""
Comment1 ""
Comment2 ""
Comment3 ""
Comment4 ""
$EndDescr
$Comp
L TL072 U1
U 2 1 59D89F19
P 4900 7000
F 0 "U1" H 4900 7200 50  0000 L CNN
F 1 "TL072" H 4900 6800 50  0000 L CNN
F 2 "Housings_DIP:DIP-8_W7.62mm_LongPads" H 4900 7000 50  0001 C CNN
F 3 "" H 4900 7000 50  0001 C CNN
	2    4900 7000
	1    0    0    -1  
$EndComp
$Comp
L Conn_01x02 J1
U 1 1 59D89F98
P 1200 1900
F 0 "J1" H 1200 2000 50  0000 C CNN
F 1 "AUDIO_INPUT" H 1200 1700 50  0000 C CNN
F 2 "Connectors_Molex:Molex_KK-6410-02_02x2.54mm_Straight" H 1200 1900 50  0001 C CNN
F 3 "" H 1200 1900 50  0001 C CNN
	1    1200 1900
	-1   0    0    1   
$EndComp
$Comp
L R R1
U 1 1 59D89FFB
P 1650 1800
F 0 "R1" V 1730 1800 50  0000 C CNN
F 1 "1k" V 1650 1800 50  0000 C CNN
F 2 "Resistors_THT:R_Axial_DIN0204_L3.6mm_D1.6mm_P7.62mm_Horizontal" V 1580 1800 50  0001 C CNN
F 3 "" H 1650 1800 50  0001 C CNN
	1    1650 1800
	0    1    1    0   
$EndComp
$Comp
L R R2
U 1 1 59D8A03A
P 1950 2200
F 0 "R2" V 2030 2200 50  0000 C CNN
F 1 "100k" V 1950 2200 50  0000 C CNN
F 2 "Resistors_THT:R_Axial_DIN0204_L3.6mm_D1.6mm_P7.62mm_Horizontal" V 1880 2200 50  0001 C CNN
F 3 "" H 1950 2200 50  0001 C CNN
	1    1950 2200
	1    0    0    -1  
$EndComp
$Comp
L GND #PWR01
U 1 1 59D8A073
P 1950 2550
F 0 "#PWR01" H 1950 2300 50  0001 C CNN
F 1 "GND" H 1950 2400 50  0000 C CNN
F 2 "" H 1950 2550 50  0001 C CNN
F 3 "" H 1950 2550 50  0001 C CNN
	1    1950 2550
	1    0    0    -1  
$EndComp
$Comp
L TL072 U1
U 1 1 59D8AA69
P 2600 1900
F 0 "U1" H 2600 2100 50  0000 L CNN
F 1 "TL072" H 2600 1700 50  0000 L CNN
F 2 "Housings_DIP:DIP-8_W7.62mm_LongPads" H 2600 1900 50  0001 C CNN
F 3 "" H 2600 1900 50  0001 C CNN
	1    2600 1900
	1    0    0    -1  
$EndComp
$Comp
L TL072 U2
U 1 1 59D8AB49
P 4550 2000
F 0 "U2" H 4550 2200 50  0000 L CNN
F 1 "TL072" H 4550 1800 50  0000 L CNN
F 2 "Housings_DIP:DIP-8_W7.62mm_LongPads" H 4550 2000 50  0001 C CNN
F 3 "" H 4550 2000 50  0001 C CNN
	1    4550 2000
	1    0    0    -1  
$EndComp
$Comp
L C C1
U 1 1 59D8ABB8
P 3200 1900
F 0 "C1" H 3225 2000 50  0000 L CNN
F 1 "4.7n" H 3225 1800 50  0000 L CNN
F 2 "Capacitors_THT:C_Rect_L7.0mm_W2.0mm_P5.00mm" H 3238 1750 50  0001 C CNN
F 3 "" H 3200 1900 50  0001 C CNN
	1    3200 1900
	0    1    1    0   
$EndComp
$Comp
L C C2
U 1 1 59D8AC4F
P 3600 1900
F 0 "C2" H 3625 2000 50  0000 L CNN
F 1 "4.7n" H 3625 1800 50  0000 L CNN
F 2 "Capacitors_THT:C_Rect_L7.0mm_W2.0mm_P5.00mm" H 3638 1750 50  0001 C CNN
F 3 "" H 3600 1900 50  0001 C CNN
	1    3600 1900
	0    1    1    0   
$EndComp
$Comp
L R R8
U 1 1 59D8ACC9
P 3950 2150
F 0 "R8" V 4030 2150 50  0000 C CNN
F 1 "10k" V 3950 2150 50  0000 C CNN
F 2 "Resistors_THT:R_Axial_DIN0204_L3.6mm_D1.6mm_P7.62mm_Horizontal" V 3880 2150 50  0001 C CNN
F 3 "" H 3950 2150 50  0001 C CNN
	1    3950 2150
	1    0    0    -1  
$EndComp
$Comp
L GND #PWR02
U 1 1 59D8AD1A
P 3950 2300
F 0 "#PWR02" H 3950 2050 50  0001 C CNN
F 1 "GND" H 3950 2150 50  0000 C CNN
F 2 "" H 3950 2300 50  0001 C CNN
F 3 "" H 3950 2300 50  0001 C CNN
	1    3950 2300
	1    0    0    -1  
$EndComp
$Comp
L R R7
U 1 1 59D8AE39
P 3950 1500
F 0 "R7" V 4030 1500 50  0000 C CNN
F 1 "20k" V 3950 1500 50  0000 C CNN
F 2 "Resistors_THT:R_Axial_DIN0204_L3.6mm_D1.6mm_P7.62mm_Horizontal" V 3880 1500 50  0001 C CNN
F 3 "" H 3950 1500 50  0001 C CNN
	1    3950 1500
	0    1    1    0   
$EndComp
$Comp
L TL072 U2
U 2 1 59D8B56A
P 6550 2100
F 0 "U2" H 6550 2300 50  0000 L CNN
F 1 "TL072" H 6550 1900 50  0000 L CNN
F 2 "Housings_DIP:DIP-8_W7.62mm_LongPads" H 6550 2100 50  0001 C CNN
F 3 "" H 6550 2100 50  0001 C CNN
	2    6550 2100
	1    0    0    -1  
$EndComp
$Comp
L C C9
U 1 1 59D8B571
P 5200 2000
F 0 "C9" H 5225 2100 50  0000 L CNN
F 1 "4.7n" H 5225 1900 50  0000 L CNN
F 2 "Capacitors_THT:C_Rect_L7.0mm_W2.0mm_P5.00mm" H 5238 1850 50  0001 C CNN
F 3 "" H 5200 2000 50  0001 C CNN
	1    5200 2000
	0    1    1    0   
$EndComp
$Comp
L C C10
U 1 1 59D8B578
P 5600 2000
F 0 "C10" H 5625 2100 50  0000 L CNN
F 1 "4.7n" H 5625 1900 50  0000 L CNN
F 2 "Capacitors_THT:C_Rect_L7.0mm_W2.0mm_P5.00mm" H 5638 1850 50  0001 C CNN
F 3 "" H 5600 2000 50  0001 C CNN
	1    5600 2000
	0    1    1    0   
$EndComp
$Comp
L R R12
U 1 1 59D8B57F
P 5950 2250
F 0 "R12" V 6030 2250 50  0000 C CNN
F 1 "10k" V 5950 2250 50  0000 C CNN
F 2 "Resistors_THT:R_Axial_DIN0204_L3.6mm_D1.6mm_P7.62mm_Horizontal" V 5880 2250 50  0001 C CNN
F 3 "" H 5950 2250 50  0001 C CNN
	1    5950 2250
	1    0    0    -1  
$EndComp
$Comp
L GND #PWR03
U 1 1 59D8B586
P 5950 2400
F 0 "#PWR03" H 5950 2150 50  0001 C CNN
F 1 "GND" H 5950 2250 50  0000 C CNN
F 2 "" H 5950 2400 50  0001 C CNN
F 3 "" H 5950 2400 50  0001 C CNN
	1    5950 2400
	1    0    0    -1  
$EndComp
$Comp
L R R11
U 1 1 59D8B595
P 5950 1600
F 0 "R11" V 6030 1600 50  0000 C CNN
F 1 "20k" V 5950 1600 50  0000 C CNN
F 2 "Resistors_THT:R_Axial_DIN0204_L3.6mm_D1.6mm_P7.62mm_Horizontal" V 5880 1600 50  0001 C CNN
F 3 "" H 5950 1600 50  0001 C CNN
	1    5950 1600
	0    1    1    0   
$EndComp
$Comp
L R R15
U 1 1 59D8BA8E
P 7150 2100
F 0 "R15" V 7230 2100 50  0000 C CNN
F 1 "100" V 7150 2100 50  0000 C CNN
F 2 "Resistors_THT:R_Axial_DIN0204_L3.6mm_D1.6mm_P7.62mm_Horizontal" V 7080 2100 50  0001 C CNN
F 3 "" H 7150 2100 50  0001 C CNN
	1    7150 2100
	0    1    1    0   
$EndComp
$Comp
L POT RV1
U 1 1 59D8BBB0
P 7500 2500
F 0 "RV1" V 7325 2500 50  0000 C CNN
F 1 "POT" V 7400 2500 50  0000 C CNN
F 2 "GeekAmmo:RTRIM3362P" H 7500 2500 50  0001 C CNN
F 3 "" H 7500 2500 50  0001 C CNN
	1    7500 2500
	1    0    0    -1  
$EndComp
$Comp
L GND #PWR04
U 1 1 59D8BC40
P 7500 3050
F 0 "#PWR04" H 7500 2800 50  0001 C CNN
F 1 "GND" H 7500 2900 50  0000 C CNN
F 2 "" H 7500 3050 50  0001 C CNN
F 3 "" H 7500 3050 50  0001 C CNN
	1    7500 3050
	1    0    0    -1  
$EndComp
$Comp
L R R16
U 1 1 59D8BE91
P 7750 2750
F 0 "R16" V 7830 2750 50  0000 C CNN
F 1 "10k" V 7750 2750 50  0000 C CNN
F 2 "Resistors_THT:R_Axial_DIN0204_L3.6mm_D1.6mm_P7.62mm_Horizontal" V 7680 2750 50  0001 C CNN
F 3 "" H 7750 2750 50  0001 C CNN
	1    7750 2750
	1    0    0    -1  
$EndComp
$Comp
L R R19
U 1 1 59D8BF6E
P 8000 2750
F 0 "R19" V 8080 2750 50  0000 C CNN
F 1 "10k" V 8000 2750 50  0000 C CNN
F 2 "Resistors_THT:R_Axial_DIN0204_L3.6mm_D1.6mm_P7.62mm_Horizontal" V 7930 2750 50  0001 C CNN
F 3 "" H 8000 2750 50  0001 C CNN
	1    8000 2750
	1    0    0    -1  
$EndComp
$Comp
L TL072 U5
U 2 1 59D8C345
P 8600 2250
F 0 "U5" H 8600 2450 50  0000 L CNN
F 1 "TL072" H 8600 2050 50  0000 L CNN
F 2 "Housings_DIP:DIP-8_W7.62mm_LongPads" H 8600 2250 50  0001 C CNN
F 3 "" H 8600 2250 50  0001 C CNN
	2    8600 2250
	1    0    0    -1  
$EndComp
$Comp
L R R24
U 1 1 59D8C47B
P 8800 2800
F 0 "R24" V 8880 2800 50  0000 C CNN
F 1 "10k" V 8800 2800 50  0000 C CNN
F 2 "Resistors_THT:R_Axial_DIN0204_L3.6mm_D1.6mm_P7.62mm_Horizontal" V 8730 2800 50  0001 C CNN
F 3 "" H 8800 2800 50  0001 C CNN
	1    8800 2800
	0    1    1    0   
$EndComp
$Comp
L R R25
U 1 1 59D8C5A2
P 9400 2250
F 0 "R25" V 9480 2250 50  0000 C CNN
F 1 "100" V 9400 2250 50  0000 C CNN
F 2 "Resistors_THT:R_Axial_DIN0204_L3.6mm_D1.6mm_P7.62mm_Horizontal" V 9330 2250 50  0001 C CNN
F 3 "" H 9400 2250 50  0001 C CNN
	1    9400 2250
	0    1    1    0   
$EndComp
$Comp
L TL072 U3
U 1 1 59D8E696
P 4800 4550
F 0 "U3" H 4800 4750 50  0000 L CNN
F 1 "TL072" H 4800 4350 50  0000 L CNN
F 2 "Housings_DIP:DIP-8_W7.62mm_LongPads" H 4800 4550 50  0001 C CNN
F 3 "" H 4800 4550 50  0001 C CNN
	1    4800 4550
	1    0    0    -1  
$EndComp
$Comp
L C C5
U 1 1 59D8EA8D
P 4050 4700
F 0 "C5" H 4075 4800 50  0000 L CNN
F 1 "4.7n" H 4075 4600 50  0000 L CNN
F 2 "Capacitors_THT:C_Rect_L7.0mm_W2.0mm_P5.00mm" H 4088 4550 50  0001 C CNN
F 3 "" H 4050 4700 50  0001 C CNN
	1    4050 4700
	-1   0    0    1   
$EndComp
$Comp
L GND #PWR05
U 1 1 59D8EB65
P 4050 4900
F 0 "#PWR05" H 4050 4650 50  0001 C CNN
F 1 "GND" H 4050 4750 50  0000 C CNN
F 2 "" H 4050 4900 50  0001 C CNN
F 3 "" H 4050 4900 50  0001 C CNN
	1    4050 4900
	1    0    0    -1  
$EndComp
$Comp
L R R5
U 1 1 59D8ED3A
P 3650 4450
F 0 "R5" V 3730 4450 50  0000 C CNN
F 1 "10k" V 3650 4450 50  0000 C CNN
F 2 "Resistors_THT:R_Axial_DIN0204_L3.6mm_D1.6mm_P7.62mm_Horizontal" V 3580 4450 50  0001 C CNN
F 3 "" H 3650 4450 50  0001 C CNN
	1    3650 4450
	0    1    1    0   
$EndComp
$Comp
L R R3
U 1 1 59D8F09B
P 3250 4450
F 0 "R3" V 3330 4450 50  0000 C CNN
F 1 "10k" V 3250 4450 50  0000 C CNN
F 2 "Resistors_THT:R_Axial_DIN0204_L3.6mm_D1.6mm_P7.62mm_Horizontal" V 3180 4450 50  0001 C CNN
F 3 "" H 3250 4450 50  0001 C CNN
	1    3250 4450
	0    1    1    0   
$EndComp
$Comp
L C C3
U 1 1 59D8F765
P 3750 4000
F 0 "C3" H 3775 4100 50  0000 L CNN
F 1 "4.7n" H 3775 3900 50  0000 L CNN
F 2 "Capacitors_THT:C_Rect_L7.0mm_W2.0mm_P5.00mm" H 3788 3850 50  0001 C CNN
F 3 "" H 3750 4000 50  0001 C CNN
	1    3750 4000
	0    -1   -1   0   
$EndComp
$Comp
L C C6
U 1 1 59D8F7FB
P 3750 3700
F 0 "C6" H 3775 3800 50  0000 L CNN
F 1 "4.7n" H 3775 3600 50  0000 L CNN
F 2 "Capacitors_THT:C_Rect_L7.0mm_W2.0mm_P5.00mm" H 3788 3550 50  0001 C CNN
F 3 "" H 3750 3700 50  0001 C CNN
	1    3750 3700
	0    -1   -1   0   
$EndComp
$Comp
L TL072 U4
U 2 1 59D90B0A
P 7200 7100
F 0 "U4" H 7200 7300 50  0000 L CNN
F 1 "TL072" H 7200 6900 50  0000 L CNN
F 2 "Housings_DIP:DIP-8_W7.62mm_LongPads" H 7200 7100 50  0001 C CNN
F 3 "" H 7200 7100 50  0001 C CNN
	2    7200 7100
	1    0    0    -1  
$EndComp
$Comp
L C C13
U 1 1 59D90B11
P 6350 4800
F 0 "C13" H 6375 4900 50  0000 L CNN
F 1 "4.7n" H 6375 4700 50  0000 L CNN
F 2 "Capacitors_THT:C_Rect_L7.0mm_W2.0mm_P5.00mm" H 6388 4650 50  0001 C CNN
F 3 "" H 6350 4800 50  0001 C CNN
	1    6350 4800
	-1   0    0    1   
$EndComp
$Comp
L GND #PWR06
U 1 1 59D90B18
P 6350 5000
F 0 "#PWR06" H 6350 4750 50  0001 C CNN
F 1 "GND" H 6350 4850 50  0000 C CNN
F 2 "" H 6350 5000 50  0001 C CNN
F 3 "" H 6350 5000 50  0001 C CNN
	1    6350 5000
	1    0    0    -1  
$EndComp
$Comp
L R R13
U 1 1 59D90B1E
P 5950 4550
F 0 "R13" V 6030 4550 50  0000 C CNN
F 1 "10k" V 5950 4550 50  0000 C CNN
F 2 "Resistors_THT:R_Axial_DIN0204_L3.6mm_D1.6mm_P7.62mm_Horizontal" V 5880 4550 50  0001 C CNN
F 3 "" H 5950 4550 50  0001 C CNN
	1    5950 4550
	0    1    1    0   
$EndComp
$Comp
L R R9
U 1 1 59D90B25
P 5550 4550
F 0 "R9" V 5630 4550 50  0000 C CNN
F 1 "10k" V 5550 4550 50  0000 C CNN
F 2 "Resistors_THT:R_Axial_DIN0204_L3.6mm_D1.6mm_P7.62mm_Horizontal" V 5480 4550 50  0001 C CNN
F 3 "" H 5550 4550 50  0001 C CNN
	1    5550 4550
	0    1    1    0   
$EndComp
$Comp
L C C11
U 1 1 59D90B2C
P 6050 4100
F 0 "C11" H 6075 4200 50  0000 L CNN
F 1 "4.7n" H 6075 4000 50  0000 L CNN
F 2 "Capacitors_THT:C_Rect_L7.0mm_W2.0mm_P5.00mm" H 6088 3950 50  0001 C CNN
F 3 "" H 6050 4100 50  0001 C CNN
	1    6050 4100
	0    -1   -1   0   
$EndComp
$Comp
L C C14
U 1 1 59D90B33
P 6050 3750
F 0 "C14" H 6075 3850 50  0000 L CNN
F 1 "4.7n" H 6075 3650 50  0000 L CNN
F 2 "Capacitors_THT:C_Rect_L7.0mm_W2.0mm_P5.00mm" H 6088 3600 50  0001 C CNN
F 3 "" H 6050 3750 50  0001 C CNN
	1    6050 3750
	0    -1   -1   0   
$EndComp
$Comp
L R R17
U 1 1 59D91CEE
P 7800 4650
F 0 "R17" V 7880 4650 50  0000 C CNN
F 1 "100" V 7800 4650 50  0000 C CNN
F 2 "Resistors_THT:R_Axial_DIN0204_L3.6mm_D1.6mm_P7.62mm_Horizontal" V 7730 4650 50  0001 C CNN
F 3 "" H 7800 4650 50  0001 C CNN
	1    7800 4650
	0    1    1    0   
$EndComp
$Comp
L POT RV2
U 1 1 59D91CF5
P 8150 5050
F 0 "RV2" V 7975 5050 50  0000 C CNN
F 1 "POT" V 8050 5050 50  0000 C CNN
F 2 "GeekAmmo:RTRIM3362P" H 8150 5050 50  0001 C CNN
F 3 "" H 8150 5050 50  0001 C CNN
	1    8150 5050
	1    0    0    -1  
$EndComp
$Comp
L GND #PWR07
U 1 1 59D91CFC
P 8150 5600
F 0 "#PWR07" H 8150 5350 50  0001 C CNN
F 1 "GND" H 8150 5450 50  0000 C CNN
F 2 "" H 8150 5600 50  0001 C CNN
F 3 "" H 8150 5600 50  0001 C CNN
	1    8150 5600
	1    0    0    -1  
$EndComp
$Comp
L R R20
U 1 1 59D91D02
P 8400 5300
F 0 "R20" V 8480 5300 50  0000 C CNN
F 1 "10k" V 8400 5300 50  0000 C CNN
F 2 "Resistors_THT:R_Axial_DIN0204_L3.6mm_D1.6mm_P7.62mm_Horizontal" V 8330 5300 50  0001 C CNN
F 3 "" H 8400 5300 50  0001 C CNN
	1    8400 5300
	1    0    0    -1  
$EndComp
$Comp
L R R22
U 1 1 59D91D09
P 8650 5300
F 0 "R22" V 8730 5300 50  0000 C CNN
F 1 "10k" V 8650 5300 50  0000 C CNN
F 2 "Resistors_THT:R_Axial_DIN0204_L3.6mm_D1.6mm_P7.62mm_Horizontal" V 8580 5300 50  0001 C CNN
F 3 "" H 8650 5300 50  0001 C CNN
	1    8650 5300
	1    0    0    -1  
$EndComp
$Comp
L TL072 U5
U 1 1 59D91D10
P 9250 4800
F 0 "U5" H 9250 5000 50  0000 L CNN
F 1 "TL072" H 9250 4600 50  0000 L CNN
F 2 "Housings_DIP:DIP-8_W7.62mm_LongPads" H 9250 4800 50  0001 C CNN
F 3 "" H 9250 4800 50  0001 C CNN
	1    9250 4800
	1    0    0    -1  
$EndComp
$Comp
L R R26
U 1 1 59D91D17
P 9450 5350
F 0 "R26" V 9530 5350 50  0000 C CNN
F 1 "10k" V 9450 5350 50  0000 C CNN
F 2 "Resistors_THT:R_Axial_DIN0204_L3.6mm_D1.6mm_P7.62mm_Horizontal" V 9380 5350 50  0001 C CNN
F 3 "" H 9450 5350 50  0001 C CNN
	1    9450 5350
	0    1    1    0   
$EndComp
$Comp
L R R28
U 1 1 59D91D1E
P 10050 4800
F 0 "R28" V 10130 4800 50  0000 C CNN
F 1 "100" V 10050 4800 50  0000 C CNN
F 2 "Resistors_THT:R_Axial_DIN0204_L3.6mm_D1.6mm_P7.62mm_Horizontal" V 9980 4800 50  0001 C CNN
F 3 "" H 10050 4800 50  0001 C CNN
	1    10050 4800
	0    1    1    0   
$EndComp
$Comp
L TL072 U3
U 2 1 59D931B8
P 7100 4650
F 0 "U3" H 7100 4850 50  0000 L CNN
F 1 "TL072" H 7100 4450 50  0000 L CNN
F 2 "Housings_DIP:DIP-8_W7.62mm_LongPads" H 7100 4650 50  0001 C CNN
F 3 "" H 7100 4650 50  0001 C CNN
	2    7100 4650
	1    0    0    -1  
$EndComp
$Comp
L C C7
U 1 1 59D931BF
P 4150 7150
F 0 "C7" H 4175 7250 50  0000 L CNN
F 1 "47n" H 4175 7050 50  0000 L CNN
F 2 "Capacitors_THT:C_Rect_L7.0mm_W2.0mm_P5.00mm" H 4188 7000 50  0001 C CNN
F 3 "" H 4150 7150 50  0001 C CNN
	1    4150 7150
	-1   0    0    1   
$EndComp
$Comp
L GND #PWR08
U 1 1 59D931C6
P 4150 7350
F 0 "#PWR08" H 4150 7100 50  0001 C CNN
F 1 "GND" H 4150 7200 50  0000 C CNN
F 2 "" H 4150 7350 50  0001 C CNN
F 3 "" H 4150 7350 50  0001 C CNN
	1    4150 7350
	1    0    0    -1  
$EndComp
$Comp
L R R6
U 1 1 59D931CC
P 3750 6900
F 0 "R6" V 3830 6900 50  0000 C CNN
F 1 "20k" V 3750 6900 50  0000 C CNN
F 2 "Resistors_THT:R_Axial_DIN0204_L3.6mm_D1.6mm_P7.62mm_Horizontal" V 3680 6900 50  0001 C CNN
F 3 "" H 3750 6900 50  0001 C CNN
	1    3750 6900
	0    1    1    0   
$EndComp
$Comp
L R R4
U 1 1 59D931D3
P 3350 6900
F 0 "R4" V 3430 6900 50  0000 C CNN
F 1 "20k" V 3350 6900 50  0000 C CNN
F 2 "Resistors_THT:R_Axial_DIN0204_L3.6mm_D1.6mm_P7.62mm_Horizontal" V 3280 6900 50  0001 C CNN
F 3 "" H 3350 6900 50  0001 C CNN
	1    3350 6900
	0    1    1    0   
$EndComp
$Comp
L C C4
U 1 1 59D931DA
P 3850 6450
F 0 "C4" H 3875 6550 50  0000 L CNN
F 1 "47n" H 3875 6350 50  0000 L CNN
F 2 "Capacitors_THT:C_Rect_L7.0mm_W2.0mm_P5.00mm" H 3888 6300 50  0001 C CNN
F 3 "" H 3850 6450 50  0001 C CNN
	1    3850 6450
	0    -1   -1   0   
$EndComp
$Comp
L C C8
U 1 1 59D931E1
P 3850 6150
F 0 "C8" H 3875 6250 50  0000 L CNN
F 1 "47n" H 3875 6050 50  0000 L CNN
F 2 "Capacitors_THT:C_Rect_L7.0mm_W2.0mm_P5.00mm" H 3888 6000 50  0001 C CNN
F 3 "" H 3850 6150 50  0001 C CNN
	1    3850 6150
	0    -1   -1   0   
$EndComp
$Comp
L TL072 U4
U 1 1 59D931F8
P 9350 7250
F 0 "U4" H 9350 7450 50  0000 L CNN
F 1 "TL072" H 9350 7050 50  0000 L CNN
F 2 "Housings_DIP:DIP-8_W7.62mm_LongPads" H 9350 7250 50  0001 C CNN
F 3 "" H 9350 7250 50  0001 C CNN
	1    9350 7250
	1    0    0    -1  
$EndComp
$Comp
L C C15
U 1 1 59D931FF
P 6450 7250
F 0 "C15" H 6475 7350 50  0000 L CNN
F 1 "47n" H 6475 7150 50  0000 L CNN
F 2 "Capacitors_THT:C_Rect_L7.0mm_W2.0mm_P5.00mm" H 6488 7100 50  0001 C CNN
F 3 "" H 6450 7250 50  0001 C CNN
	1    6450 7250
	-1   0    0    1   
$EndComp
$Comp
L GND #PWR09
U 1 1 59D93206
P 6450 7450
F 0 "#PWR09" H 6450 7200 50  0001 C CNN
F 1 "GND" H 6450 7300 50  0000 C CNN
F 2 "" H 6450 7450 50  0001 C CNN
F 3 "" H 6450 7450 50  0001 C CNN
	1    6450 7450
	1    0    0    -1  
$EndComp
$Comp
L R R14
U 1 1 59D9320C
P 6050 7000
F 0 "R14" V 6130 7000 50  0000 C CNN
F 1 "20k" V 6050 7000 50  0000 C CNN
F 2 "Resistors_THT:R_Axial_DIN0204_L3.6mm_D1.6mm_P7.62mm_Horizontal" V 5980 7000 50  0001 C CNN
F 3 "" H 6050 7000 50  0001 C CNN
	1    6050 7000
	0    1    1    0   
$EndComp
$Comp
L R R10
U 1 1 59D93213
P 5650 7000
F 0 "R10" V 5730 7000 50  0000 C CNN
F 1 "20k" V 5650 7000 50  0000 C CNN
F 2 "Resistors_THT:R_Axial_DIN0204_L3.6mm_D1.6mm_P7.62mm_Horizontal" V 5580 7000 50  0001 C CNN
F 3 "" H 5650 7000 50  0001 C CNN
	1    5650 7000
	0    1    1    0   
$EndComp
$Comp
L C C12
U 1 1 59D9321A
P 6150 6550
F 0 "C12" H 6175 6650 50  0000 L CNN
F 1 "47n" H 6175 6450 50  0000 L CNN
F 2 "Capacitors_THT:C_Rect_L7.0mm_W2.0mm_P5.00mm" H 6188 6400 50  0001 C CNN
F 3 "" H 6150 6550 50  0001 C CNN
	1    6150 6550
	0    -1   -1   0   
$EndComp
$Comp
L C C16
U 1 1 59D93221
P 6150 6200
F 0 "C16" H 6175 6300 50  0000 L CNN
F 1 "47n" H 6175 6100 50  0000 L CNN
F 2 "Capacitors_THT:C_Rect_L7.0mm_W2.0mm_P5.00mm" H 6188 6050 50  0001 C CNN
F 3 "" H 6150 6200 50  0001 C CNN
	1    6150 6200
	0    -1   -1   0   
$EndComp
$Comp
L R R18
U 1 1 59D93238
P 7900 7100
F 0 "R18" V 7980 7100 50  0000 C CNN
F 1 "100" V 7900 7100 50  0000 C CNN
F 2 "Resistors_THT:R_Axial_DIN0204_L3.6mm_D1.6mm_P7.62mm_Horizontal" V 7830 7100 50  0001 C CNN
F 3 "" H 7900 7100 50  0001 C CNN
	1    7900 7100
	0    1    1    0   
$EndComp
$Comp
L POT RV3
U 1 1 59D9323F
P 8250 7500
F 0 "RV3" V 8075 7500 50  0000 C CNN
F 1 "POT" V 8150 7500 50  0000 C CNN
F 2 "GeekAmmo:RTRIM3362P" H 8250 7500 50  0001 C CNN
F 3 "" H 8250 7500 50  0001 C CNN
	1    8250 7500
	1    0    0    -1  
$EndComp
$Comp
L GND #PWR010
U 1 1 59D93246
P 8250 8050
F 0 "#PWR010" H 8250 7800 50  0001 C CNN
F 1 "GND" H 8250 7900 50  0000 C CNN
F 2 "" H 8250 8050 50  0001 C CNN
F 3 "" H 8250 8050 50  0001 C CNN
	1    8250 8050
	1    0    0    -1  
$EndComp
$Comp
L R R21
U 1 1 59D9324C
P 8500 7750
F 0 "R21" V 8580 7750 50  0000 C CNN
F 1 "10k" V 8500 7750 50  0000 C CNN
F 2 "Resistors_THT:R_Axial_DIN0204_L3.6mm_D1.6mm_P7.62mm_Horizontal" V 8430 7750 50  0001 C CNN
F 3 "" H 8500 7750 50  0001 C CNN
	1    8500 7750
	1    0    0    -1  
$EndComp
$Comp
L R R23
U 1 1 59D93253
P 8750 7750
F 0 "R23" V 8830 7750 50  0000 C CNN
F 1 "10k" V 8750 7750 50  0000 C CNN
F 2 "Resistors_THT:R_Axial_DIN0204_L3.6mm_D1.6mm_P7.62mm_Horizontal" V 8680 7750 50  0001 C CNN
F 3 "" H 8750 7750 50  0001 C CNN
	1    8750 7750
	1    0    0    -1  
$EndComp
$Comp
L R R27
U 1 1 59D93261
P 9550 7800
F 0 "R27" V 9630 7800 50  0000 C CNN
F 1 "10k" V 9550 7800 50  0000 C CNN
F 2 "Resistors_THT:R_Axial_DIN0204_L3.6mm_D1.6mm_P7.62mm_Horizontal" V 9480 7800 50  0001 C CNN
F 3 "" H 9550 7800 50  0001 C CNN
	1    9550 7800
	0    1    1    0   
$EndComp
$Comp
L R R30
U 1 1 59D93268
P 10150 7250
F 0 "R30" V 10230 7250 50  0000 C CNN
F 1 "100" V 10150 7250 50  0000 C CNN
F 2 "Resistors_THT:R_Axial_DIN0204_L3.6mm_D1.6mm_P7.62mm_Horizontal" V 10080 7250 50  0001 C CNN
F 3 "" H 10150 7250 50  0001 C CNN
	1    10150 7250
	0    1    1    0   
$EndComp
$Comp
L LM1875 U7
U 1 1 59D9AB2D
P 11000 2400
F 0 "U7" H 11200 2650 50  0000 C CNN
F 1 "LM1875" H 11200 2600 50  0000 C CNN
F 2 "TO_SOT_Packages_THT:TO-220-5_Vertical_StaggeredType1" H 10850 2400 50  0001 C CIN
F 3 "" H 11000 2400 50  0001 C CNN
	1    11000 2400
	1    0    0    -1  
$EndComp
$Comp
L C C17
U 1 1 59D9B9BB
P 9800 2250
F 0 "C17" H 9825 2350 50  0000 L CNN
F 1 "100n" H 9825 2150 50  0000 L CNN
F 2 "Capacitors_THT:C_Rect_L7.0mm_W2.0mm_P5.00mm" H 9838 2100 50  0001 C CNN
F 3 "" H 9800 2250 50  0001 C CNN
	1    9800 2250
	0    1    1    0   
$EndComp
$Comp
L R R29
U 1 1 59D9BC27
P 10150 2500
F 0 "R29" V 10230 2500 50  0000 C CNN
F 1 "20k" V 10150 2500 50  0000 C CNN
F 2 "Resistors_THT:R_Axial_DIN0204_L3.6mm_D1.6mm_P7.62mm_Horizontal" V 10080 2500 50  0001 C CNN
F 3 "" H 10150 2500 50  0001 C CNN
	1    10150 2500
	1    0    0    -1  
$EndComp
$Comp
L GND #PWR011
U 1 1 59D9BDF7
P 10150 2650
F 0 "#PWR011" H 10150 2400 50  0001 C CNN
F 1 "GND" H 10150 2500 50  0000 C CNN
F 2 "" H 10150 2650 50  0001 C CNN
F 3 "" H 10150 2650 50  0001 C CNN
	1    10150 2650
	1    0    0    -1  
$EndComp
$Comp
L R R35
U 1 1 59D9C97E
P 11350 3000
F 0 "R35" V 11430 3000 50  0000 C CNN
F 1 "20k" V 11350 3000 50  0000 C CNN
F 2 "Resistors_SMD:R_1206_HandSoldering" V 11280 3000 50  0001 C CNN
F 3 "" H 11350 3000 50  0001 C CNN
	1    11350 3000
	0    1    1    0   
$EndComp
Wire Wire Line
	1950 2350 1950 2550
Wire Wire Line
	1400 1900 1400 2450
Wire Wire Line
	1400 2450 1950 2450
Connection ~ 1950 2450
Wire Wire Line
	1500 1800 1400 1800
Wire Wire Line
	1800 1800 2300 1800
Wire Wire Line
	1950 2050 1950 1800
Connection ~ 1950 1800
Wire Wire Line
	2300 2000 2200 2000
Wire Wire Line
	2200 2000 2200 2350
Wire Wire Line
	2200 2350 2950 2350
Wire Wire Line
	2950 1900 2950 6900
Wire Wire Line
	2900 1900 3050 1900
Wire Wire Line
	3950 2000 3950 1900
Wire Wire Line
	3750 1900 4250 1900
Wire Wire Line
	3350 1900 3450 1900
Connection ~ 2950 1900
Connection ~ 3950 1900
Wire Wire Line
	4250 2100 4150 2100
Wire Wire Line
	4150 2100 4150 2450
Wire Wire Line
	4150 2450 4900 2450
Wire Wire Line
	4900 2450 4900 1500
Wire Wire Line
	4850 2000 5050 2000
Wire Wire Line
	3800 1500 3400 1500
Wire Wire Line
	3400 1500 3400 1900
Connection ~ 3400 1900
Wire Wire Line
	4900 1500 4100 1500
Connection ~ 4900 2000
Wire Wire Line
	5950 2100 5950 2000
Wire Wire Line
	5750 2000 6250 2000
Wire Wire Line
	5350 2000 5450 2000
Connection ~ 5950 2000
Wire Wire Line
	6250 2200 6150 2200
Wire Wire Line
	6150 2200 6150 2550
Wire Wire Line
	6150 2550 6900 2550
Wire Wire Line
	6900 2550 6900 1600
Wire Wire Line
	6850 2100 7000 2100
Wire Wire Line
	5800 1600 5400 1600
Wire Wire Line
	5400 1600 5400 2000
Connection ~ 5400 2000
Wire Wire Line
	6900 1600 6100 1600
Connection ~ 6900 2100
Wire Wire Line
	7500 2350 7500 2100
Wire Wire Line
	7500 2100 7300 2100
Wire Wire Line
	7500 2650 7500 3050
Wire Wire Line
	7750 2150 7750 2600
Wire Wire Line
	7750 2500 7650 2500
Wire Wire Line
	8000 2950 8000 2900
Wire Wire Line
	7500 2950 8000 2950
Connection ~ 7500 2950
Wire Wire Line
	7750 2900 7750 2950
Connection ~ 7750 2950
Wire Wire Line
	8000 2350 8300 2350
Wire Wire Line
	8000 2350 8000 2600
Wire Wire Line
	8300 2150 7750 2150
Connection ~ 7750 2500
Wire Wire Line
	8950 2800 9150 2800
Wire Wire Line
	9150 2800 9150 2250
Wire Wire Line
	8900 2250 9250 2250
Wire Wire Line
	8650 2800 8200 2800
Wire Wire Line
	8200 2800 8200 2350
Connection ~ 8200 2350
Connection ~ 9150 2250
Wire Wire Line
	4050 4550 4050 4450
Wire Wire Line
	3800 4450 4500 4450
Wire Wire Line
	4050 4900 4050 4850
Connection ~ 4050 4450
Wire Wire Line
	3400 4450 3500 4450
Wire Wire Line
	3900 4000 5200 4000
Wire Wire Line
	3600 4000 3450 4000
Wire Wire Line
	3450 3700 3450 4450
Connection ~ 3450 4450
Connection ~ 2950 2350
Wire Wire Line
	5200 4000 5200 5000
Wire Wire Line
	5100 4550 5400 4550
Wire Wire Line
	4500 4650 4350 4650
Wire Wire Line
	4350 4650 4350 5000
Wire Wire Line
	4350 5000 5200 5000
Connection ~ 5200 4550
Wire Wire Line
	6350 4650 6350 4550
Wire Wire Line
	6100 4550 6800 4550
Wire Wire Line
	6350 5000 6350 4950
Connection ~ 6350 4550
Wire Wire Line
	5700 4550 5800 4550
Wire Wire Line
	6200 4100 7500 4100
Wire Wire Line
	5900 4100 5750 4100
Wire Wire Line
	5750 3750 5750 4550
Connection ~ 5750 4550
Wire Wire Line
	7500 4100 7500 5100
Wire Wire Line
	7400 4650 7650 4650
Wire Wire Line
	6800 4750 6650 4750
Wire Wire Line
	6650 4750 6650 5100
Wire Wire Line
	6650 5100 7500 5100
Connection ~ 7500 4650
Wire Wire Line
	2950 4450 3100 4450
Wire Wire Line
	8150 4900 8150 4650
Wire Wire Line
	8150 4650 7950 4650
Wire Wire Line
	8150 5200 8150 5600
Wire Wire Line
	8400 4700 8400 5150
Wire Wire Line
	8400 5050 8300 5050
Wire Wire Line
	8650 5500 8650 5450
Wire Wire Line
	8150 5500 8650 5500
Connection ~ 8150 5500
Wire Wire Line
	8400 5450 8400 5500
Connection ~ 8400 5500
Wire Wire Line
	8650 4900 8950 4900
Wire Wire Line
	8650 4900 8650 5150
Wire Wire Line
	8950 4700 8400 4700
Connection ~ 8400 5050
Wire Wire Line
	9600 5350 9800 5350
Wire Wire Line
	9800 5350 9800 4800
Wire Wire Line
	9550 4800 9900 4800
Wire Wire Line
	9300 5350 8850 5350
Wire Wire Line
	8850 5350 8850 4900
Connection ~ 8850 4900
Connection ~ 9800 4800
Wire Wire Line
	4150 7000 4150 6900
Wire Wire Line
	3900 6900 4600 6900
Wire Wire Line
	4150 7350 4150 7300
Connection ~ 4150 6900
Wire Wire Line
	3500 6900 3600 6900
Wire Wire Line
	4000 6450 5300 6450
Wire Wire Line
	3700 6450 3550 6450
Wire Wire Line
	3550 6150 3550 6900
Connection ~ 3550 6900
Wire Wire Line
	5300 6450 5300 7450
Wire Wire Line
	5200 7000 5500 7000
Wire Wire Line
	4600 7100 4450 7100
Wire Wire Line
	4450 7100 4450 7450
Wire Wire Line
	4450 7450 5300 7450
Connection ~ 5300 7000
Wire Wire Line
	6450 7100 6450 7000
Wire Wire Line
	6200 7000 6900 7000
Wire Wire Line
	6450 7450 6450 7400
Connection ~ 6450 7000
Wire Wire Line
	5800 7000 5900 7000
Wire Wire Line
	6300 6550 7600 6550
Wire Wire Line
	6000 6550 5850 6550
Wire Wire Line
	5850 6200 5850 7000
Connection ~ 5850 7000
Wire Wire Line
	7600 6550 7600 7550
Wire Wire Line
	7500 7100 7750 7100
Wire Wire Line
	6900 7200 6750 7200
Wire Wire Line
	6750 7200 6750 7550
Wire Wire Line
	6750 7550 7600 7550
Connection ~ 7600 7100
Wire Wire Line
	8250 7350 8250 7100
Wire Wire Line
	8250 7100 8050 7100
Wire Wire Line
	8250 7650 8250 8050
Wire Wire Line
	8500 7150 8500 7600
Wire Wire Line
	8500 7500 8400 7500
Wire Wire Line
	8750 7950 8750 7900
Wire Wire Line
	8250 7950 8750 7950
Connection ~ 8250 7950
Wire Wire Line
	8500 7900 8500 7950
Connection ~ 8500 7950
Wire Wire Line
	8750 7350 9050 7350
Wire Wire Line
	8750 7350 8750 7600
Wire Wire Line
	9050 7150 8500 7150
Connection ~ 8500 7500
Wire Wire Line
	9700 7800 9900 7800
Wire Wire Line
	9900 7800 9900 7250
Wire Wire Line
	9650 7250 10000 7250
Wire Wire Line
	9400 7800 8950 7800
Wire Wire Line
	8950 7800 8950 7350
Connection ~ 8950 7350
Connection ~ 9900 7250
Wire Wire Line
	2950 6900 3200 6900
Connection ~ 2950 4450
Wire Wire Line
	9650 2250 9550 2250
Wire Wire Line
	10150 2350 10150 2250
Wire Wire Line
	9950 2250 10550 2250
Connection ~ 10150 2250
Wire Wire Line
	11200 3000 10400 3000
Wire Wire Line
	10400 2550 10400 3150
Wire Wire Line
	10400 2550 10550 2550
Wire Wire Line
	11500 3000 11700 3000
Wire Wire Line
	11700 3000 11700 2400
Wire Wire Line
	11550 2400 12500 2400
$Comp
L R R31
U 1 1 59D9CD9D
P 10400 3300
F 0 "R31" V 10480 3300 50  0000 C CNN
F 1 "1k" V 10400 3300 50  0000 C CNN
F 2 "Resistors_THT:R_Axial_DIN0204_L3.6mm_D1.6mm_P7.62mm_Horizontal" V 10330 3300 50  0001 C CNN
F 3 "" H 10400 3300 50  0001 C CNN
	1    10400 3300
	1    0    0    -1  
$EndComp
Connection ~ 10400 3000
$Comp
L CP C18
U 1 1 59D9CF8D
P 10400 3700
F 0 "C18" H 10425 3800 50  0000 L CNN
F 1 "22u" H 10425 3600 50  0000 L CNN
F 2 "Capacitors_THT:CP_Radial_D5.0mm_P2.00mm" H 10438 3550 50  0001 C CNN
F 3 "" H 10400 3700 50  0001 C CNN
	1    10400 3700
	1    0    0    -1  
$EndComp
Wire Wire Line
	10400 3550 10400 3450
$Comp
L GND #PWR012
U 1 1 59D9D138
P 10400 3850
F 0 "#PWR012" H 10400 3600 50  0001 C CNN
F 1 "GND" H 10400 3700 50  0000 C CNN
F 2 "" H 10400 3850 50  0001 C CNN
F 3 "" H 10400 3850 50  0001 C CNN
	1    10400 3850
	1    0    0    -1  
$EndComp
$Comp
L R R37
U 1 1 59D9DDD4
P 11950 2600
F 0 "R37" V 12030 2600 50  0000 C CNN
F 1 "1R/1W" V 11950 2600 50  0000 C CNN
F 2 "Resistors_THT:R_Axial_DIN0309_L9.0mm_D3.2mm_P12.70mm_Horizontal" V 11880 2600 50  0001 C CNN
F 3 "" H 11950 2600 50  0001 C CNN
	1    11950 2600
	1    0    0    -1  
$EndComp
Wire Wire Line
	11950 2400 11950 2450
Connection ~ 11700 2400
$Comp
L C C21
U 1 1 59D9E063
P 11950 3000
F 0 "C21" H 11975 3100 50  0000 L CNN
F 1 "220n/250V" H 11975 2900 50  0000 L CNN
F 2 "Capacitors_THT:C_Rect_L11.0mm_W3.4mm_P10.00mm_MKT" H 11988 2850 50  0001 C CNN
F 3 "" H 11950 3000 50  0001 C CNN
	1    11950 3000
	1    0    0    -1  
$EndComp
Wire Wire Line
	11950 2850 11950 2750
$Comp
L GND #PWR013
U 1 1 59D9E223
P 11950 3150
F 0 "#PWR013" H 11950 2900 50  0001 C CNN
F 1 "GND" H 11950 3000 50  0000 C CNN
F 2 "" H 11950 3150 50  0001 C CNN
F 3 "" H 11950 3150 50  0001 C CNN
	1    11950 3150
	1    0    0    -1  
$EndComp
$Comp
L Conn_01x02 J3
U 1 1 59D9E723
P 12700 2400
F 0 "J3" H 12700 2500 50  0000 C CNN
F 1 "HF_OUT" H 12700 2200 50  0000 C CNN
F 2 "Connectors:bornier2" H 12700 2400 50  0001 C CNN
F 3 "" H 12700 2400 50  0001 C CNN
	1    12700 2400
	1    0    0    -1  
$EndComp
Connection ~ 11950 2400
$Comp
L GND #PWR014
U 1 1 59D9E8E6
P 12300 2650
F 0 "#PWR014" H 12300 2400 50  0001 C CNN
F 1 "GND" H 12300 2500 50  0000 C CNN
F 2 "" H 12300 2650 50  0001 C CNN
F 3 "" H 12300 2650 50  0001 C CNN
	1    12300 2650
	1    0    0    -1  
$EndComp
Wire Wire Line
	12300 2650 12300 2500
Wire Wire Line
	12300 2500 12500 2500
$Comp
L Conn_01x02 J2
U 1 1 59D9F38F
P 10800 7250
F 0 "J2" H 10800 7350 50  0000 C CNN
F 1 "SUB_OUT" H 10800 7050 50  0000 C CNN
F 2 "Connectors_Molex:Molex_KK-6410-02_02x2.54mm_Straight" H 10800 7250 50  0001 C CNN
F 3 "" H 10800 7250 50  0001 C CNN
	1    10800 7250
	1    0    0    -1  
$EndComp
Wire Wire Line
	10600 7250 10300 7250
$Comp
L GND #PWR015
U 1 1 59D9F54D
P 10450 7600
F 0 "#PWR015" H 10450 7350 50  0001 C CNN
F 1 "GND" H 10450 7450 50  0000 C CNN
F 2 "" H 10450 7600 50  0001 C CNN
F 3 "" H 10450 7600 50  0001 C CNN
	1    10450 7600
	1    0    0    -1  
$EndComp
Wire Wire Line
	10450 7600 10450 7350
Wire Wire Line
	10450 7350 10600 7350
$Comp
L LM3886T U8
U 1 1 59DA0F5D
P 11950 5000
F 0 "U8" H 12200 5250 50  0000 C CNN
F 1 "LM3886T" H 12200 5200 50  0000 C CNN
F 2 "TO_SOT_Packages_THT:TO-220-11_Vertical_StaggeredType1" H 11750 5000 50  0001 C CIN
F 3 "" H 11950 5000 50  0001 C CNN
	1    11950 5000
	1    0    0    -1  
$EndComp
$Comp
L C C19
U 1 1 59DA1595
P 10450 4800
F 0 "C19" H 10475 4900 50  0000 L CNN
F 1 "1u" H 10475 4700 50  0000 L CNN
F 2 "Capacitors_THT:C_Rect_L7.0mm_W6.0mm_P5.00mm" H 10488 4650 50  0001 C CNN
F 3 "" H 10450 4800 50  0001 C CNN
	1    10450 4800
	0    1    1    0   
$EndComp
$Comp
L R R32
U 1 1 59DA1E17
P 10750 5050
F 0 "R32" V 10830 5050 50  0000 C CNN
F 1 "20k" V 10750 5050 50  0000 C CNN
F 2 "Resistors_THT:R_Axial_DIN0204_L3.6mm_D1.6mm_P7.62mm_Horizontal" V 10680 5050 50  0001 C CNN
F 3 "" H 10750 5050 50  0001 C CNN
	1    10750 5050
	1    0    0    -1  
$EndComp
$Comp
L R R33
U 1 1 59DA20B0
P 11050 4800
F 0 "R33" V 11130 4800 50  0000 C CNN
F 1 "1k" V 11050 4800 50  0000 C CNN
F 2 "Resistors_THT:R_Axial_DIN0204_L3.6mm_D1.6mm_P7.62mm_Horizontal" V 10980 4800 50  0001 C CNN
F 3 "" H 11050 4800 50  0001 C CNN
	1    11050 4800
	0    1    1    0   
$EndComp
$Comp
L GND #PWR016
U 1 1 59DA2215
P 10750 5300
F 0 "#PWR016" H 10750 5050 50  0001 C CNN
F 1 "GND" H 10750 5150 50  0000 C CNN
F 2 "" H 10750 5300 50  0001 C CNN
F 3 "" H 10750 5300 50  0001 C CNN
	1    10750 5300
	1    0    0    -1  
$EndComp
Wire Wire Line
	10750 5300 10750 5200
Wire Wire Line
	10750 4900 10750 4800
Wire Wire Line
	10600 4800 10900 4800
Wire Wire Line
	10300 4800 10200 4800
Connection ~ 10750 4800
Wire Wire Line
	11300 4800 11200 4800
$Comp
L R R36
U 1 1 59DA2E79
P 11350 5700
F 0 "R36" V 11430 5700 50  0000 C CNN
F 1 "20k" V 11350 5700 50  0000 C CNN
F 2 "Resistors_THT:R_Axial_DIN0204_L3.6mm_D1.6mm_P7.62mm_Horizontal" V 11280 5700 50  0001 C CNN
F 3 "" H 11350 5700 50  0001 C CNN
	1    11350 5700
	0    1    1    0   
$EndComp
Wire Wire Line
	11200 5700 11050 5700
Wire Wire Line
	11050 5200 11050 5800
Wire Wire Line
	11050 5200 11300 5200
Wire Wire Line
	11500 5700 12650 5700
Wire Wire Line
	12650 5700 12650 5000
Wire Wire Line
	12550 5000 13100 5000
$Comp
L R R34
U 1 1 59DA3218
P 11050 5950
F 0 "R34" V 11130 5950 50  0000 C CNN
F 1 "1k" V 11050 5950 50  0000 C CNN
F 2 "Resistors_THT:R_Axial_DIN0204_L3.6mm_D1.6mm_P7.62mm_Horizontal" V 10980 5950 50  0001 C CNN
F 3 "" H 11050 5950 50  0001 C CNN
	1    11050 5950
	-1   0    0    1   
$EndComp
$Comp
L CP C20
U 1 1 59DA368A
P 11050 6350
F 0 "C20" H 11075 6450 50  0000 L CNN
F 1 "22u" H 11075 6250 50  0000 L CNN
F 2 "Capacitors_THT:CP_Radial_D5.0mm_P2.00mm" H 11088 6200 50  0001 C CNN
F 3 "" H 11050 6350 50  0001 C CNN
	1    11050 6350
	1    0    0    -1  
$EndComp
Wire Wire Line
	11050 6200 11050 6100
Connection ~ 11050 5700
$Comp
L GND #PWR017
U 1 1 59DA3D2A
P 11050 6500
F 0 "#PWR017" H 11050 6250 50  0001 C CNN
F 1 "GND" H 11050 6350 50  0000 C CNN
F 2 "" H 11050 6500 50  0001 C CNN
F 3 "" H 11050 6500 50  0001 C CNN
	1    11050 6500
	1    0    0    -1  
$EndComp
$Comp
L R R38
U 1 1 59DA3E1C
P 12100 5400
F 0 "R38" V 12180 5400 50  0000 C CNN
F 1 "20k" V 12100 5400 50  0000 C CNN
F 2 "Resistors_SMD:R_1206_HandSoldering" V 12030 5400 50  0001 C CNN
F 3 "" H 12100 5400 50  0001 C CNN
	1    12100 5400
	1    0    0    -1  
$EndComp
Wire Wire Line
	12100 5550 12100 5600
Wire Wire Line
	12100 5600 11900 5600
Wire Wire Line
	11900 5350 11900 6500
$Comp
L Conn_01x02 J4
U 1 1 59DA4FFF
P 13300 5000
F 0 "J4" H 13300 5100 50  0000 C CNN
F 1 "LF_OUT" H 13300 4800 50  0000 C CNN
F 2 "Connectors:bornier2" H 13300 5000 50  0001 C CNN
F 3 "" H 13300 5000 50  0001 C CNN
	1    13300 5000
	1    0    0    -1  
$EndComp
Connection ~ 12650 5000
$Comp
L GND #PWR018
U 1 1 59DA57D0
P 12850 5200
F 0 "#PWR018" H 12850 4950 50  0001 C CNN
F 1 "GND" H 12850 5050 50  0000 C CNN
F 2 "" H 12850 5200 50  0001 C CNN
F 3 "" H 12850 5200 50  0001 C CNN
	1    12850 5200
	1    0    0    -1  
$EndComp
Wire Wire Line
	12850 5200 12850 5100
Wire Wire Line
	12850 5100 13100 5100
$Comp
L +15V #PWR019
U 1 1 59DB3262
P 2500 850
F 0 "#PWR019" H 2500 700 50  0001 C CNN
F 1 "+15V" H 2500 990 50  0000 C CNN
F 2 "" H 2500 850 50  0001 C CNN
F 3 "" H 2500 850 50  0001 C CNN
	1    2500 850 
	1    0    0    -1  
$EndComp
$Comp
L -15V #PWR3
U 1 1 59DB3312
P 2500 2850
F 0 "#PWR3" H 2500 2950 50  0001 C CNN
F 1 "-15V" H 2500 3000 50  0000 C CNN
F 2 "" H 2500 2850 50  0001 C CNN
F 3 "" H 2500 2850 50  0001 C CNN
	1    2500 2850
	-1   0    0    1   
$EndComp
$Comp
L C C35
U 1 1 59DB39D8
P 2750 2650
F 0 "C35" H 2775 2750 50  0000 L CNN
F 1 "100n" H 2775 2550 50  0000 L CNN
F 2 "Capacitors_THT:C_Rect_L9.0mm_W2.5mm_P7.50mm_MKT" H 2788 2500 50  0001 C CNN
F 3 "" H 2750 2650 50  0001 C CNN
	1    2750 2650
	-1   0    0    1   
$EndComp
Wire Wire Line
	2750 2500 2750 2300
Wire Wire Line
	2750 2300 2500 2300
Wire Wire Line
	2500 2200 2500 2850
Connection ~ 2500 2300
$Comp
L GND #PWR020
U 1 1 59DB3E8D
P 2750 2800
F 0 "#PWR020" H 2750 2550 50  0001 C CNN
F 1 "GND" H 2750 2650 50  0000 C CNN
F 2 "" H 2750 2800 50  0001 C CNN
F 3 "" H 2750 2800 50  0001 C CNN
	1    2750 2800
	1    0    0    -1  
$EndComp
$Comp
L C C34
U 1 1 59DB4339
P 2700 1250
F 0 "C34" H 2725 1350 50  0000 L CNN
F 1 "100n" H 2500 1150 50  0000 L CNN
F 2 "Capacitors_THT:C_Rect_L9.0mm_W2.5mm_P7.50mm_MKT" H 2738 1100 50  0001 C CNN
F 3 "" H 2700 1250 50  0001 C CNN
	1    2700 1250
	-1   0    0    1   
$EndComp
$Comp
L GND #PWR021
U 1 1 59DB444B
P 2700 1400
F 0 "#PWR021" H 2700 1150 50  0001 C CNN
F 1 "GND" H 2700 1250 50  0000 C CNN
F 2 "" H 2700 1400 50  0001 C CNN
F 3 "" H 2700 1400 50  0001 C CNN
	1    2700 1400
	1    0    0    -1  
$EndComp
Wire Wire Line
	2500 850  2500 1600
Wire Wire Line
	2700 1100 2700 1000
Wire Wire Line
	2700 1000 2500 1000
Connection ~ 2500 1000
$Comp
L +15V #PWR022
U 1 1 59DB5DCD
P 4450 700
F 0 "#PWR022" H 4450 550 50  0001 C CNN
F 1 "+15V" H 4450 840 50  0000 C CNN
F 2 "" H 4450 700 50  0001 C CNN
F 3 "" H 4450 700 50  0001 C CNN
	1    4450 700 
	1    0    0    -1  
$EndComp
$Comp
L C C36
U 1 1 59DB5DD3
P 4650 1100
F 0 "C36" H 4675 1200 50  0000 L CNN
F 1 "100n" H 4450 1000 50  0000 L CNN
F 2 "Capacitors_THT:C_Rect_L9.0mm_W2.5mm_P7.50mm_MKT" H 4688 950 50  0001 C CNN
F 3 "" H 4650 1100 50  0001 C CNN
	1    4650 1100
	-1   0    0    1   
$EndComp
$Comp
L GND #PWR023
U 1 1 59DB5DDA
P 4650 1250
F 0 "#PWR023" H 4650 1000 50  0001 C CNN
F 1 "GND" H 4650 1100 50  0000 C CNN
F 2 "" H 4650 1250 50  0001 C CNN
F 3 "" H 4650 1250 50  0001 C CNN
	1    4650 1250
	1    0    0    -1  
$EndComp
Wire Wire Line
	4450 700  4450 1700
Wire Wire Line
	4650 950  4650 850 
Wire Wire Line
	4650 850  4450 850 
Connection ~ 4450 850 
$Comp
L -15V #PWR15
U 1 1 59DB5FBB
P 4450 3150
F 0 "#PWR15" H 4450 3250 50  0001 C CNN
F 1 "-15V" H 4450 3300 50  0000 C CNN
F 2 "" H 4450 3150 50  0001 C CNN
F 3 "" H 4450 3150 50  0001 C CNN
	1    4450 3150
	-1   0    0    1   
$EndComp
$Comp
L C C37
U 1 1 59DB60B9
P 4650 2900
F 0 "C37" H 4675 3000 50  0000 L CNN
F 1 "100n" H 4450 2800 50  0000 L CNN
F 2 "Capacitors_THT:C_Rect_L9.0mm_W2.5mm_P7.50mm_MKT" H 4688 2750 50  0001 C CNN
F 3 "" H 4650 2900 50  0001 C CNN
	1    4650 2900
	-1   0    0    1   
$EndComp
$Comp
L GND #PWR024
U 1 1 59DB61E1
P 4650 3050
F 0 "#PWR024" H 4650 2800 50  0001 C CNN
F 1 "GND" H 4650 2900 50  0000 C CNN
F 2 "" H 4650 3050 50  0001 C CNN
F 3 "" H 4650 3050 50  0001 C CNN
	1    4650 3050
	1    0    0    -1  
$EndComp
Wire Wire Line
	4650 2750 4650 2550
Wire Wire Line
	4650 2550 4450 2550
Wire Wire Line
	4450 2300 4450 3150
Connection ~ 4450 2550
$Comp
L +15V #PWR025
U 1 1 59DB6857
P 9150 3500
F 0 "#PWR025" H 9150 3350 50  0001 C CNN
F 1 "+15V" H 9150 3640 50  0000 C CNN
F 2 "" H 9150 3500 50  0001 C CNN
F 3 "" H 9150 3500 50  0001 C CNN
	1    9150 3500
	1    0    0    -1  
$EndComp
$Comp
L C C42
U 1 1 59DB685D
P 9350 3900
F 0 "C42" H 9375 4000 50  0000 L CNN
F 1 "100n" H 9150 3800 50  0000 L CNN
F 2 "Capacitors_THT:C_Rect_L9.0mm_W2.5mm_P7.50mm_MKT" H 9388 3750 50  0001 C CNN
F 3 "" H 9350 3900 50  0001 C CNN
	1    9350 3900
	-1   0    0    1   
$EndComp
$Comp
L GND #PWR026
U 1 1 59DB6864
P 9350 4050
F 0 "#PWR026" H 9350 3800 50  0001 C CNN
F 1 "GND" H 9350 3900 50  0000 C CNN
F 2 "" H 9350 4050 50  0001 C CNN
F 3 "" H 9350 4050 50  0001 C CNN
	1    9350 4050
	1    0    0    -1  
$EndComp
Wire Wire Line
	9150 3500 9150 4500
Wire Wire Line
	9350 3750 9350 3650
Wire Wire Line
	9350 3650 9150 3650
Connection ~ 9150 3650
$Comp
L -15V #PWR33
U 1 1 59DB6D12
P 9150 6250
F 0 "#PWR33" H 9150 6350 50  0001 C CNN
F 1 "-15V" H 9150 6400 50  0000 C CNN
F 2 "" H 9150 6250 50  0001 C CNN
F 3 "" H 9150 6250 50  0001 C CNN
	1    9150 6250
	-1   0    0    1   
$EndComp
$Comp
L C C43
U 1 1 59DB6D18
P 9350 6000
F 0 "C43" H 9375 6100 50  0000 L CNN
F 1 "100n" H 9150 5900 50  0000 L CNN
F 2 "Capacitors_THT:C_Rect_L9.0mm_W2.5mm_P7.50mm_MKT" H 9388 5850 50  0001 C CNN
F 3 "" H 9350 6000 50  0001 C CNN
	1    9350 6000
	-1   0    0    1   
$EndComp
$Comp
L GND #PWR027
U 1 1 59DB6D1F
P 9350 6150
F 0 "#PWR027" H 9350 5900 50  0001 C CNN
F 1 "GND" H 9350 6000 50  0000 C CNN
F 2 "" H 9350 6150 50  0001 C CNN
F 3 "" H 9350 6150 50  0001 C CNN
	1    9350 6150
	1    0    0    -1  
$EndComp
Wire Wire Line
	9350 5850 9350 5650
Wire Wire Line
	9350 5650 9150 5650
Wire Wire Line
	9150 5100 9150 6250
Connection ~ 9150 5650
$Comp
L +15V #PWR028
U 1 1 59DB76FD
P 7000 3300
F 0 "#PWR028" H 7000 3150 50  0001 C CNN
F 1 "+15V" H 7000 3440 50  0000 C CNN
F 2 "" H 7000 3300 50  0001 C CNN
F 3 "" H 7000 3300 50  0001 C CNN
	1    7000 3300
	1    0    0    -1  
$EndComp
$Comp
L C C38
U 1 1 59DB7703
P 7200 3700
F 0 "C38" H 7225 3800 50  0000 L CNN
F 1 "100n" H 7000 3600 50  0000 L CNN
F 2 "Capacitors_THT:C_Rect_L9.0mm_W2.5mm_P7.50mm_MKT" H 7238 3550 50  0001 C CNN
F 3 "" H 7200 3700 50  0001 C CNN
	1    7200 3700
	-1   0    0    1   
$EndComp
$Comp
L GND #PWR029
U 1 1 59DB770A
P 7200 3850
F 0 "#PWR029" H 7200 3600 50  0001 C CNN
F 1 "GND" H 7200 3700 50  0000 C CNN
F 2 "" H 7200 3850 50  0001 C CNN
F 3 "" H 7200 3850 50  0001 C CNN
	1    7200 3850
	1    0    0    -1  
$EndComp
Wire Wire Line
	7000 3300 7000 4350
Wire Wire Line
	7200 3550 7200 3450
Wire Wire Line
	7200 3450 7000 3450
Connection ~ 7000 3450
$Comp
L -15V #PWR22
U 1 1 59DB7AD1
P 7000 5900
F 0 "#PWR22" H 7000 6000 50  0001 C CNN
F 1 "-15V" H 7000 6050 50  0000 C CNN
F 2 "" H 7000 5900 50  0001 C CNN
F 3 "" H 7000 5900 50  0001 C CNN
	1    7000 5900
	-1   0    0    1   
$EndComp
$Comp
L C C39
U 1 1 59DB7AD7
P 7200 5650
F 0 "C39" H 7225 5750 50  0000 L CNN
F 1 "100n" H 7000 5550 50  0000 L CNN
F 2 "Capacitors_THT:C_Rect_L9.0mm_W2.5mm_P7.50mm_MKT" H 7238 5500 50  0001 C CNN
F 3 "" H 7200 5650 50  0001 C CNN
	1    7200 5650
	-1   0    0    1   
$EndComp
$Comp
L GND #PWR030
U 1 1 59DB7ADE
P 7200 5800
F 0 "#PWR030" H 7200 5550 50  0001 C CNN
F 1 "GND" H 7200 5650 50  0000 C CNN
F 2 "" H 7200 5800 50  0001 C CNN
F 3 "" H 7200 5800 50  0001 C CNN
	1    7200 5800
	1    0    0    -1  
$EndComp
Wire Wire Line
	7200 5500 7200 5300
Wire Wire Line
	7200 5300 7000 5300
Wire Wire Line
	7000 4950 7000 5900
Connection ~ 7000 5300
$Comp
L -15V #PWR23
U 1 1 59DB869C
P 7100 8350
F 0 "#PWR23" H 7100 8450 50  0001 C CNN
F 1 "-15V" H 7100 8500 50  0000 C CNN
F 2 "" H 7100 8350 50  0001 C CNN
F 3 "" H 7100 8350 50  0001 C CNN
	1    7100 8350
	-1   0    0    1   
$EndComp
$Comp
L C C40
U 1 1 59DB86A2
P 7300 8100
F 0 "C40" H 7325 8200 50  0000 L CNN
F 1 "100n" H 7100 8000 50  0000 L CNN
F 2 "Capacitors_THT:C_Rect_L9.0mm_W2.5mm_P7.50mm_MKT" H 7338 7950 50  0001 C CNN
F 3 "" H 7300 8100 50  0001 C CNN
	1    7300 8100
	-1   0    0    1   
$EndComp
$Comp
L GND #PWR031
U 1 1 59DB86A9
P 7300 8250
F 0 "#PWR031" H 7300 8000 50  0001 C CNN
F 1 "GND" H 7300 8100 50  0000 C CNN
F 2 "" H 7300 8250 50  0001 C CNN
F 3 "" H 7300 8250 50  0001 C CNN
	1    7300 8250
	1    0    0    -1  
$EndComp
Wire Wire Line
	7300 7950 7300 7750
Wire Wire Line
	7300 7750 7100 7750
Wire Wire Line
	7100 7400 7100 8350
Connection ~ 7100 7750
$Comp
L +15V #PWR032
U 1 1 59DB9179
P 7600 5350
F 0 "#PWR032" H 7600 5200 50  0001 C CNN
F 1 "+15V" H 7600 5490 50  0000 C CNN
F 2 "" H 7600 5350 50  0001 C CNN
F 3 "" H 7600 5350 50  0001 C CNN
	1    7600 5350
	1    0    0    -1  
$EndComp
$Comp
L C C41
U 1 1 59DB917F
P 7800 5750
F 0 "C41" H 7825 5850 50  0000 L CNN
F 1 "100n" H 7600 5650 50  0000 L CNN
F 2 "Capacitors_THT:C_Rect_L9.0mm_W2.5mm_P7.50mm_MKT" H 7838 5600 50  0001 C CNN
F 3 "" H 7800 5750 50  0001 C CNN
	1    7800 5750
	-1   0    0    1   
$EndComp
$Comp
L GND #PWR033
U 1 1 59DB9186
P 7800 5900
F 0 "#PWR033" H 7800 5650 50  0001 C CNN
F 1 "GND" H 7800 5750 50  0000 C CNN
F 2 "" H 7800 5900 50  0001 C CNN
F 3 "" H 7800 5900 50  0001 C CNN
	1    7800 5900
	1    0    0    -1  
$EndComp
Wire Wire Line
	7600 5350 7600 6350
Wire Wire Line
	7800 5600 7800 5500
Wire Wire Line
	7800 5500 7600 5500
Connection ~ 7600 5500
Wire Wire Line
	7600 6350 7100 6350
Wire Wire Line
	7100 6350 7100 6800
$Comp
L +36V #PWR034
U 1 1 59DB9D76
P 11000 1350
F 0 "#PWR034" H 11000 1200 50  0001 C CNN
F 1 "+36V" H 11000 1490 50  0000 C CNN
F 2 "" H 11000 1350 50  0001 C CNN
F 3 "" H 11000 1350 50  0001 C CNN
	1    11000 1350
	1    0    0    -1  
$EndComp
Wire Wire Line
	11000 1350 11000 2050
$Comp
L C C44
U 1 1 59DB9FEB
P 11250 1700
F 0 "C44" H 11275 1800 50  0000 L CNN
F 1 "100n" H 11275 1600 50  0000 L CNN
F 2 "Capacitors_THT:C_Rect_L7.0mm_W2.0mm_P5.00mm" H 11288 1550 50  0001 C CNN
F 3 "" H 11250 1700 50  0001 C CNN
	1    11250 1700
	-1   0    0    1   
$EndComp
Wire Wire Line
	11250 1550 11250 1450
Wire Wire Line
	11000 1450 11500 1450
Connection ~ 11000 1450
$Comp
L GND #PWR035
U 1 1 59DBA22C
P 11250 1850
F 0 "#PWR035" H 11250 1600 50  0001 C CNN
F 1 "GND" H 11250 1700 50  0000 C CNN
F 2 "" H 11250 1850 50  0001 C CNN
F 3 "" H 11250 1850 50  0001 C CNN
	1    11250 1850
	1    0    0    -1  
$EndComp
$Comp
L -36V #PWR42
U 1 1 59DBACE7
P 11000 3800
F 0 "#PWR42" H 11000 3900 50  0001 C CNN
F 1 "-36V" H 11000 3950 50  0000 C CNN
F 2 "" H 11000 3800 50  0001 C CNN
F 3 "" H 11000 3800 50  0001 C CNN
	1    11000 3800
	-1   0    0    1   
$EndComp
Wire Wire Line
	11000 2750 11000 3800
$Comp
L C C45
U 1 1 59DBAFA1
P 11250 3450
F 0 "C45" H 11275 3550 50  0000 L CNN
F 1 "100n" H 11275 3350 50  0000 L CNN
F 2 "Capacitors_THT:C_Rect_L7.0mm_W2.0mm_P5.00mm" H 11288 3300 50  0001 C CNN
F 3 "" H 11250 3450 50  0001 C CNN
	1    11250 3450
	-1   0    0    1   
$EndComp
$Comp
L GND #PWR036
U 1 1 59DBB0D3
P 11250 3600
F 0 "#PWR036" H 11250 3350 50  0001 C CNN
F 1 "GND" H 11250 3450 50  0000 C CNN
F 2 "" H 11250 3600 50  0001 C CNN
F 3 "" H 11250 3600 50  0001 C CNN
	1    11250 3600
	1    0    0    -1  
$EndComp
Wire Wire Line
	11250 3200 11250 3300
Wire Wire Line
	10850 3200 11250 3200
Connection ~ 11000 3200
$Comp
L +36V #PWR037
U 1 1 59DBC02C
P 11700 3700
F 0 "#PWR037" H 11700 3550 50  0001 C CNN
F 1 "+36V" H 11700 3840 50  0000 C CNN
F 2 "" H 11700 3700 50  0001 C CNN
F 3 "" H 11700 3700 50  0001 C CNN
	1    11700 3700
	1    0    0    -1  
$EndComp
Wire Wire Line
	11700 3700 11700 4550
$Comp
L -36V #PWR49
U 1 1 59DBC66C
P 11900 6500
F 0 "#PWR49" H 11900 6600 50  0001 C CNN
F 1 "-36V" H 11900 6650 50  0000 C CNN
F 2 "" H 11900 6500 50  0001 C CNN
F 3 "" H 11900 6500 50  0001 C CNN
	1    11900 6500
	-1   0    0    1   
$EndComp
Connection ~ 11900 5600
Wire Wire Line
	11900 4650 11900 4500
Wire Wire Line
	11900 4500 11700 4500
Connection ~ 11700 4500
$Comp
L GND #PWR038
U 1 1 59DBCE29
P 11700 5450
F 0 "#PWR038" H 11700 5200 50  0001 C CNN
F 1 "GND" H 11700 5300 50  0000 C CNN
F 2 "" H 11700 5450 50  0001 C CNN
F 3 "" H 11700 5450 50  0001 C CNN
	1    11700 5450
	1    0    0    -1  
$EndComp
$Comp
L C C46
U 1 1 59DBD31E
P 11950 4100
F 0 "C46" H 11975 4200 50  0000 L CNN
F 1 "100n" H 11975 4000 50  0000 L CNN
F 2 "Capacitors_THT:C_Rect_L7.0mm_W2.0mm_P5.00mm" H 11988 3950 50  0001 C CNN
F 3 "" H 11950 4100 50  0001 C CNN
	1    11950 4100
	-1   0    0    1   
$EndComp
$Comp
L GND #PWR039
U 1 1 59DBD453
P 11950 4250
F 0 "#PWR039" H 11950 4000 50  0001 C CNN
F 1 "GND" H 11950 4100 50  0000 C CNN
F 2 "" H 11950 4250 50  0001 C CNN
F 3 "" H 11950 4250 50  0001 C CNN
	1    11950 4250
	1    0    0    -1  
$EndComp
Wire Wire Line
	11950 3950 11950 3850
Wire Wire Line
	11700 3850 12200 3850
Connection ~ 11700 3850
$Comp
L C C47
U 1 1 59DBDAC3
P 12150 6100
F 0 "C47" H 12175 6200 50  0000 L CNN
F 1 "100n" H 12175 6000 50  0000 L CNN
F 2 "Capacitors_THT:C_Rect_L7.0mm_W2.0mm_P5.00mm" H 12188 5950 50  0001 C CNN
F 3 "" H 12150 6100 50  0001 C CNN
	1    12150 6100
	-1   0    0    1   
$EndComp
$Comp
L GND #PWR040
U 1 1 59DBDC01
P 12150 6250
F 0 "#PWR040" H 12150 6000 50  0001 C CNN
F 1 "GND" H 12150 6100 50  0000 C CNN
F 2 "" H 12150 6250 50  0001 C CNN
F 3 "" H 12150 6250 50  0001 C CNN
	1    12150 6250
	1    0    0    -1  
$EndComp
Wire Wire Line
	12150 5950 12150 5850
Wire Wire Line
	11900 5850 12400 5850
Connection ~ 11900 5850
$Comp
L CP C49
U 1 1 59DC35C5
P 11500 1700
F 0 "C49" H 11525 1800 50  0000 L CNN
F 1 "220u" H 11525 1600 50  0000 L CNN
F 2 "Capacitors_THT:CP_Radial_D10.0mm_P5.00mm" H 11538 1550 50  0001 C CNN
F 3 "" H 11500 1700 50  0001 C CNN
	1    11500 1700
	1    0    0    -1  
$EndComp
Wire Wire Line
	11500 1450 11500 1550
Connection ~ 11250 1450
$Comp
L GND #PWR041
U 1 1 59DC39EA
P 11500 1850
F 0 "#PWR041" H 11500 1600 50  0001 C CNN
F 1 "GND" H 11500 1700 50  0000 C CNN
F 2 "" H 11500 1850 50  0001 C CNN
F 3 "" H 11500 1850 50  0001 C CNN
	1    11500 1850
	1    0    0    -1  
$EndComp
$Comp
L CP C48
U 1 1 59DC4751
P 10850 3450
F 0 "C48" H 10875 3550 50  0000 L CNN
F 1 "220u" H 10875 3350 50  0000 L CNN
F 2 "Capacitors_THT:CP_Radial_D10.0mm_P5.00mm" H 10888 3300 50  0001 C CNN
F 3 "" H 10850 3450 50  0001 C CNN
	1    10850 3450
	-1   0    0    1   
$EndComp
Wire Wire Line
	10850 3300 10850 3200
$Comp
L GND #PWR042
U 1 1 59DC4A0F
P 10850 3600
F 0 "#PWR042" H 10850 3350 50  0001 C CNN
F 1 "GND" H 10850 3450 50  0000 C CNN
F 2 "" H 10850 3600 50  0001 C CNN
F 3 "" H 10850 3600 50  0001 C CNN
	1    10850 3600
	1    0    0    -1  
$EndComp
$Comp
L CP C50
U 1 1 59DC532F
P 12200 4100
F 0 "C50" H 12225 4200 50  0000 L CNN
F 1 "220u" H 12225 4000 50  0000 L CNN
F 2 "Capacitors_THT:CP_Radial_D10.0mm_P5.00mm" H 12238 3950 50  0001 C CNN
F 3 "" H 12200 4100 50  0001 C CNN
	1    12200 4100
	1    0    0    -1  
$EndComp
Wire Wire Line
	12200 3850 12200 3950
Connection ~ 11950 3850
$Comp
L GND #PWR043
U 1 1 59DC57CF
P 12200 4250
F 0 "#PWR043" H 12200 4000 50  0001 C CNN
F 1 "GND" H 12200 4100 50  0000 C CNN
F 2 "" H 12200 4250 50  0001 C CNN
F 3 "" H 12200 4250 50  0001 C CNN
	1    12200 4250
	1    0    0    -1  
$EndComp
$Comp
L CP C51
U 1 1 59DC6695
P 12400 6100
F 0 "C51" H 12425 6200 50  0000 L CNN
F 1 "220u" H 12425 6000 50  0000 L CNN
F 2 "Capacitors_THT:CP_Radial_D10.0mm_P5.00mm" H 12438 5950 50  0001 C CNN
F 3 "" H 12400 6100 50  0001 C CNN
	1    12400 6100
	-1   0    0    1   
$EndComp
Wire Wire Line
	12400 5850 12400 5950
Connection ~ 12150 5850
$Comp
L GND #PWR044
U 1 1 59DC6C5E
P 12400 6250
F 0 "#PWR044" H 12400 6000 50  0001 C CNN
F 1 "GND" H 12400 6100 50  0000 C CNN
F 2 "" H 12400 6250 50  0001 C CNN
F 3 "" H 12400 6250 50  0001 C CNN
	1    12400 6250
	1    0    0    -1  
$EndComp
$Comp
L Conn_01x03 J5
U 1 1 59D98716
P 2550 8600
F 0 "J5" H 2550 8800 50  0000 C CNN
F 1 "SUPPLY_HV" H 2550 8400 50  0000 C CNN
F 2 "Connectors:bornier3" H 2550 8600 50  0001 C CNN
F 3 "" H 2550 8600 50  0001 C CNN
	1    2550 8600
	-1   0    0    1   
$EndComp
$Comp
L Conn_01x03 J6
U 1 1 59D9883D
P 2550 9400
F 0 "J6" H 2550 9600 50  0000 C CNN
F 1 "SUPPLY_LV" H 2550 9200 50  0000 C CNN
F 2 "Connectors:bornier3" H 2550 9400 50  0001 C CNN
F 3 "" H 2550 9400 50  0001 C CNN
	1    2550 9400
	-1   0    0    1   
$EndComp
$Comp
L GND #PWR045
U 1 1 59D98C54
P 2950 9650
F 0 "#PWR045" H 2950 9400 50  0001 C CNN
F 1 "GND" H 2950 9500 50  0000 C CNN
F 2 "" H 2950 9650 50  0001 C CNN
F 3 "" H 2950 9650 50  0001 C CNN
	1    2950 9650
	1    0    0    -1  
$EndComp
Wire Wire Line
	2950 8600 2950 9650
Wire Wire Line
	2950 9400 2750 9400
Wire Wire Line
	2750 8600 2950 8600
Connection ~ 2950 9400
$Comp
L +15V #PWR046
U 1 1 59D99187
P 3250 9150
F 0 "#PWR046" H 3250 9000 50  0001 C CNN
F 1 "+15V" H 3250 9290 50  0000 C CNN
F 2 "" H 3250 9150 50  0001 C CNN
F 3 "" H 3250 9150 50  0001 C CNN
	1    3250 9150
	1    0    0    -1  
$EndComp
Wire Wire Line
	3250 9150 3250 9300
Wire Wire Line
	3250 9300 2750 9300
$Comp
L -15V #PWR10
U 1 1 59D993E1
P 3250 9650
F 0 "#PWR10" H 3250 9750 50  0001 C CNN
F 1 "-15V" H 3250 9800 50  0000 C CNN
F 2 "" H 3250 9650 50  0001 C CNN
F 3 "" H 3250 9650 50  0001 C CNN
	1    3250 9650
	-1   0    0    1   
$EndComp
Wire Wire Line
	3250 9650 3250 9500
Wire Wire Line
	3250 9500 2750 9500
$Comp
L +36V #PWR047
U 1 1 59D9BE0D
P 3250 8400
F 0 "#PWR047" H 3250 8250 50  0001 C CNN
F 1 "+36V" H 3250 8540 50  0000 C CNN
F 2 "" H 3250 8400 50  0001 C CNN
F 3 "" H 3250 8400 50  0001 C CNN
	1    3250 8400
	1    0    0    -1  
$EndComp
Wire Wire Line
	3250 8400 3250 8500
Wire Wire Line
	3250 8500 2750 8500
$Comp
L -36V #PWR8
U 1 1 59D9C06B
P 3250 8750
F 0 "#PWR8" H 3250 8850 50  0001 C CNN
F 1 "-36V" H 3250 8900 50  0000 C CNN
F 2 "" H 3250 8750 50  0001 C CNN
F 3 "" H 3250 8750 50  0001 C CNN
	1    3250 8750
	-1   0    0    1   
$EndComp
Wire Wire Line
	3250 8750 3250 8700
Wire Wire Line
	3250 8700 2750 8700
Wire Wire Line
	3900 3700 4000 3700
Wire Wire Line
	4000 3700 4000 4000
Connection ~ 4000 4000
Wire Wire Line
	3600 3700 3450 3700
Connection ~ 3450 4000
Wire Wire Line
	6200 3750 6250 3750
Wire Wire Line
	6250 3750 6250 4100
Connection ~ 6250 4100
Wire Wire Line
	5900 3750 5750 3750
Connection ~ 5750 4100
Wire Wire Line
	3550 6150 3700 6150
Connection ~ 3550 6450
Wire Wire Line
	4000 6150 4100 6150
Wire Wire Line
	4100 6150 4100 6450
Connection ~ 4100 6450
Wire Wire Line
	6000 6200 5850 6200
Connection ~ 5850 6550
Wire Wire Line
	6300 6200 6450 6200
Wire Wire Line
	6450 6200 6450 6550
Connection ~ 6450 6550
$EndSCHEMATC
